module gitlab.com/jaxnet/jaxwallet/walletdb

go 1.17

require (
	github.com/btcsuite/btclog v0.0.0-20170628155309-84c8d2346e9f
	github.com/davecgh/go-spew v1.1.1
	go.etcd.io/bbolt v1.3.5-0.20200615073812-232d8fc87f50
)

require golang.org/x/sys v0.0.0-20200202164722-d101bd2416d5 // indirect
